^C:\USERS\WILLY\DOCUMENTS\YNOV\C++\DIRTYSPACEINVADERS\DIRTYSPACEINVADERS\DIRTYSPACEINVADERS\X64\RELEASE\ALIEN.OBJ|C:\USERS\WILLY\DOCUMENTS\YNOV\C++\DIRTYSPACEINVADERS\DIRTYSPACEINVADERS\DIRTYSPACEINVADERS\X64\RELEASE\ALIENB.OBJ|C:\USERS\WILLY\DOCUMENTS\YNOV\C++\DIRTYSPACEINVADERS\DIRTYSPACEINVADERS\DIRTYSPACEINVADERS\X64\RELEASE\ALIENLASER.OBJ|C:\USERS\WILLY\DOCUMENTS\YNOV\C++\DIRTYSPACEINVADERS\DIRTYSPACEINVADERS\DIRTYSPACEINVADERS\X64\RELEASE\ASTEROID.OBJ|C:\USERS\WILLY\DOCUMENTS\YNOV\C++\DIRTYSPACEINVADERS\DIRTYSPACEINVADERS\DIRTYSPACEINVADERS\X64\RELEASE\CONSOLERENDERER.OBJ|C:\USERS\WILLY\DOCUMENTS\YNOV\C++\DIRTYSPACEINVADERS\DIRTYSPACEINVADERS\DIRTYSPACEINVADERS\X64\RELEASE\GAMEOBJECT.OBJ|C:\USERS\WILLY\DOCUMENTS\YNOV\C++\DIRTYSPACEINVADERS\DIRTYSPACEINVADERS\DIRTYSPACEINVADERS\X64\RELEASE\INPUT.OBJ|C:\USERS\WILLY\DOCUMENTS\YNOV\C++\DIRTYSPACEINVADERS\DIRTYSPACEINVADERS\DIRTYSPACEINVADERS\X64\RELEASE\MAIN.OBJ|C:\USERS\WILLY\DOCUMENTS\YNOV\C++\DIRTYSPACEINVADERS\DIRTYSPACEINVADERS\DIRTYSPACEINVADERS\X64\RELEASE\PLAYERINPUT.OBJ|C:\USERS\WILLY\DOCUMENTS\YNOV\C++\DIRTYSPACEINVADERS\DIRTYSPACEINVADERS\DIRTYSPACEINVADERS\X64\RELEASE\PLAYERLASER.OBJ|C:\USERS\WILLY\DOCUMENTS\YNOV\C++\DIRTYSPACEINVADERS\DIRTYSPACEINVADERS\DIRTYSPACEINVADERS\X64\RELEASE\PLAYERSHIP.OBJ|C:\USERS\WILLY\DOCUMENTS\YNOV\C++\DIRTYSPACEINVADERS\DIRTYSPACEINVADERS\DIRTYSPACEINVADERS\X64\RELEASE\PLAYFIELD.OBJ|C:\USERS\WILLY\DOCUMENTS\YNOV\C++\DIRTYSPACEINVADERS\DIRTYSPACEINVADERS\DIRTYSPACEINVADERS\X64\RELEASE\RENDERER.OBJ|C:\USERS\WILLY\DOCUMENTS\YNOV\C++\DIRTYSPACEINVADERS\DIRTYSPACEINVADERS\DIRTYSPACEINVADERS\X64\RELEASE\RNDINPUT.OBJ|C:\USERS\WILLY\DOCUMENTS\YNOV\C++\DIRTYSPACEINVADERS\DIRTYSPACEINVADERS\DIRTYSPACEINVADERS\X64\RELEASE\SFMLRENDERER.OBJ
C:\USERS\WILLY\DOCUMENTS\YNOV\C++\DIRTYSPACEINVADERS\DIRTYSPACEINVADERS\X64\RELEASE\DIRTYSPACEINVADERS.EXE
C:\USERS\WILLY\DOCUMENTS\YNOV\C++\DIRTYSPACEINVADERS\DIRTYSPACEINVADERS\DIRTYSPACEINVADERS\X64\RELEASE\DIRTYSPACEINVADERS.IPDB
C:\USERS\WILLY\DOCUMENTS\YNOV\C++\DIRTYSPACEINVADERS\DIRTYSPACEINVADERS\DIRTYSPACEINVADERS\X64\RELEASE\DIRTYSPACEINVADERS.IOBJ
C:\USERS\WILLY\DOCUMENTS\YNOV\C++\DIRTYSPACEINVADERS\DIRTYSPACEINVADERS\X64\RELEASE\DIRTYSPACEINVADERS.PDB
