﻿  Alien.cpp
  AlienB.cpp
  AlienLaser.cpp
  Asteroid.cpp
  ConsoleRenderer.cpp
  GameObject.cpp
  Input.cpp
  Main.cpp
  PlayerInput.cpp
  PlayerLaser.cpp
  PlayerShip.cpp
  PlayField.cpp
  Renderer.cpp
  RndInput.cpp
  SFMLRenderer.cpp
  Génération de code en cours
  Previous IPDB not found, fall back to full compilation.
  All 553 functions were compiled because no usable IPDB/IOBJ from previous compilation was found.
  Fin de la génération du code
  DirtySpaceInvaders.vcxproj -> C:\Users\willy\Documents\Ynov\C++\DirtySpaceInvaders\dirtyspaceinvaders\x64\Release\DirtySpaceInvaders.exe
